<?xml version="1.0" encoding="utf-8" standalone="no"?>
<!DOCTYPE svg PUBLIC "-//W3C//DTD SVG 1.1//EN"
  "http://www.w3.org/Graphics/SVG/1.1/DTD/svg11.dtd">
<!-- Created with matplotlib (http://matplotlib.org/) -->
<svg height="259pt" version="1.1" viewBox="0 0 311 259" width="311pt" xmlns="http://www.w3.org/2000/svg" xmlns:xlink="http://www.w3.org/1999/xlink">
 <defs>
  <style type="text/css">
*{stroke-linecap:butt;stroke-linejoin:round;}
  </style>
 </defs>
 <g id="figure_1">
  <g id="patch_1">
   <path d="M 0 259.2 
L 311.04 259.2 
L 311.04 0 
L 0 0 
z
" style="fill:#ffffff;"/>
  </g>
  <g id="axes_1">
   <g id="patch_2">
    <path d="M 56.098304 217.24 
L 297.72 217.24 
L 297.72 13.32 
L 56.098304 13.32 
z
" style="fill:#ffffff;"/>
   </g>
   <g id="matplotlib.axis_1">
    <g id="xtick_1">
     <g id="line2d_1">
      <defs>
       <path d="M 0 0 
L 0 3.5 
" id="m75b9732552" style="stroke:#000000;stroke-width:0.8;"/>
      </defs>
      <g>
       <use style="stroke:#000000;stroke-width:0.8;" x="59.995428" xlink:href="#m75b9732552" y="217.24"/>
      </g>
     </g>
     <g id="text_1">
      <!-- 0 -->
      <defs>
       <path d="M 31.78125 66.40625 
Q 24.171875 66.40625 20.328125 58.90625 
Q 16.5 51.421875 16.5 36.375 
Q 16.5 21.390625 20.328125 13.890625 
Q 24.171875 6.390625 31.78125 6.390625 
Q 39.453125 6.390625 43.28125 13.890625 
Q 47.125 21.390625 47.125 36.375 
Q 47.125 51.421875 43.28125 58.90625 
Q 39.453125 66.40625 31.78125 66.40625 
z
M 31.78125 74.21875 
Q 44.046875 74.21875 50.515625 64.515625 
Q 56.984375 54.828125 56.984375 36.375 
Q 56.984375 17.96875 50.515625 8.265625 
Q 44.046875 -1.421875 31.78125 -1.421875 
Q 19.53125 -1.421875 13.0625 8.265625 
Q 6.59375 17.96875 6.59375 36.375 
Q 6.59375 54.828125 13.0625 64.515625 
Q 19.53125 74.21875 31.78125 74.21875 
z
" id="DejaVuSans-30"/>
      </defs>
      <g transform="translate(56.814178 231.838437)scale(0.1 -0.1)">
       <use xlink:href="#DejaVuSans-30"/>
      </g>
     </g>
    </g>
    <g id="xtick_2">
     <g id="line2d_2">
      <g>
       <use style="stroke:#000000;stroke-width:0.8;" x="95.423829" xlink:href="#m75b9732552" y="217.24"/>
      </g>
     </g>
     <g id="text_2">
      <!-- 50 -->
      <defs>
       <path d="M 10.796875 72.90625 
L 49.515625 72.90625 
L 49.515625 64.59375 
L 19.828125 64.59375 
L 19.828125 46.734375 
Q 21.96875 47.46875 24.109375 47.828125 
Q 26.265625 48.1875 28.421875 48.1875 
Q 40.625 48.1875 47.75 41.5 
Q 54.890625 34.8125 54.890625 23.390625 
Q 54.890625 11.625 47.5625 5.09375 
Q 40.234375 -1.421875 26.90625 -1.421875 
Q 22.3125 -1.421875 17.546875 -0.640625 
Q 12.796875 0.140625 7.71875 1.703125 
L 7.71875 11.625 
Q 12.109375 9.234375 16.796875 8.0625 
Q 21.484375 6.890625 26.703125 6.890625 
Q 35.15625 6.890625 40.078125 11.328125 
Q 45.015625 15.765625 45.015625 23.390625 
Q 45.015625 31 40.078125 35.4375 
Q 35.15625 39.890625 26.703125 39.890625 
Q 22.75 39.890625 18.8125 39.015625 
Q 14.890625 38.140625 10.796875 36.28125 
z
" id="DejaVuSans-35"/>
      </defs>
      <g transform="translate(89.061329 231.838437)scale(0.1 -0.1)">
       <use xlink:href="#DejaVuSans-35"/>
       <use x="63.623047" xlink:href="#DejaVuSans-30"/>
      </g>
     </g>
    </g>
    <g id="xtick_3">
     <g id="line2d_3">
      <g>
       <use style="stroke:#000000;stroke-width:0.8;" x="130.85223" xlink:href="#m75b9732552" y="217.24"/>
      </g>
     </g>
     <g id="text_3">
      <!-- 100 -->
      <defs>
       <path d="M 12.40625 8.296875 
L 28.515625 8.296875 
L 28.515625 63.921875 
L 10.984375 60.40625 
L 10.984375 69.390625 
L 28.421875 72.90625 
L 38.28125 72.90625 
L 38.28125 8.296875 
L 54.390625 8.296875 
L 54.390625 0 
L 12.40625 0 
z
" id="DejaVuSans-31"/>
      </defs>
      <g transform="translate(121.30848 231.838437)scale(0.1 -0.1)">
       <use xlink:href="#DejaVuSans-31"/>
       <use x="63.623047" xlink:href="#DejaVuSans-30"/>
       <use x="127.246094" xlink:href="#DejaVuSans-30"/>
      </g>
     </g>
    </g>
    <g id="xtick_4">
     <g id="line2d_4">
      <g>
       <use style="stroke:#000000;stroke-width:0.8;" x="166.280632" xlink:href="#m75b9732552" y="217.24"/>
      </g>
     </g>
     <g id="text_4">
      <!-- 150 -->
      <g transform="translate(156.736882 231.838437)scale(0.1 -0.1)">
       <use xlink:href="#DejaVuSans-31"/>
       <use x="63.623047" xlink:href="#DejaVuSans-35"/>
       <use x="127.246094" xlink:href="#DejaVuSans-30"/>
      </g>
     </g>
    </g>
    <g id="xtick_5">
     <g id="line2d_5">
      <g>
       <use style="stroke:#000000;stroke-width:0.8;" x="201.709033" xlink:href="#m75b9732552" y="217.24"/>
      </g>
     </g>
     <g id="text_5">
      <!-- 200 -->
      <defs>
       <path d="M 19.1875 8.296875 
L 53.609375 8.296875 
L 53.609375 0 
L 7.328125 0 
L 7.328125 8.296875 
Q 12.9375 14.109375 22.625 23.890625 
Q 32.328125 33.6875 34.8125 36.53125 
Q 39.546875 41.84375 41.421875 45.53125 
Q 43.3125 49.21875 43.3125 52.78125 
Q 43.3125 58.59375 39.234375 62.25 
Q 35.15625 65.921875 28.609375 65.921875 
Q 23.96875 65.921875 18.8125 64.3125 
Q 13.671875 62.703125 7.8125 59.421875 
L 7.8125 69.390625 
Q 13.765625 71.78125 18.9375 73 
Q 24.125 74.21875 28.421875 74.21875 
Q 39.75 74.21875 46.484375 68.546875 
Q 53.21875 62.890625 53.21875 53.421875 
Q 53.21875 48.921875 51.53125 44.890625 
Q 49.859375 40.875 45.40625 35.40625 
Q 44.1875 33.984375 37.640625 27.21875 
Q 31.109375 20.453125 19.1875 8.296875 
z
" id="DejaVuSans-32"/>
      </defs>
      <g transform="translate(192.165283 231.838437)scale(0.1 -0.1)">
       <use xlink:href="#DejaVuSans-32"/>
       <use x="63.623047" xlink:href="#DejaVuSans-30"/>
       <use x="127.246094" xlink:href="#DejaVuSans-30"/>
      </g>
     </g>
    </g>
    <g id="xtick_6">
     <g id="line2d_6">
      <g>
       <use style="stroke:#000000;stroke-width:0.8;" x="237.137434" xlink:href="#m75b9732552" y="217.24"/>
      </g>
     </g>
     <g id="text_6">
      <!-- 250 -->
      <g transform="translate(227.593684 231.838437)scale(0.1 -0.1)">
       <use xlink:href="#DejaVuSans-32"/>
       <use x="63.623047" xlink:href="#DejaVuSans-35"/>
       <use x="127.246094" xlink:href="#DejaVuSans-30"/>
      </g>
     </g>
    </g>
    <g id="xtick_7">
     <g id="line2d_7">
      <g>
       <use style="stroke:#000000;stroke-width:0.8;" x="272.565835" xlink:href="#m75b9732552" y="217.24"/>
      </g>
     </g>
     <g id="text_7">
      <!-- 300 -->
      <defs>
       <path d="M 40.578125 39.3125 
Q 47.65625 37.796875 51.625 33 
Q 55.609375 28.21875 55.609375 21.1875 
Q 55.609375 10.40625 48.1875 4.484375 
Q 40.765625 -1.421875 27.09375 -1.421875 
Q 22.515625 -1.421875 17.65625 -0.515625 
Q 12.796875 0.390625 7.625 2.203125 
L 7.625 11.71875 
Q 11.71875 9.328125 16.59375 8.109375 
Q 21.484375 6.890625 26.8125 6.890625 
Q 36.078125 6.890625 40.9375 10.546875 
Q 45.796875 14.203125 45.796875 21.1875 
Q 45.796875 27.640625 41.28125 31.265625 
Q 36.765625 34.90625 28.71875 34.90625 
L 20.21875 34.90625 
L 20.21875 43.015625 
L 29.109375 43.015625 
Q 36.375 43.015625 40.234375 45.921875 
Q 44.09375 48.828125 44.09375 54.296875 
Q 44.09375 59.90625 40.109375 62.90625 
Q 36.140625 65.921875 28.71875 65.921875 
Q 24.65625 65.921875 20.015625 65.03125 
Q 15.375 64.15625 9.8125 62.3125 
L 9.8125 71.09375 
Q 15.4375 72.65625 20.34375 73.4375 
Q 25.25 74.21875 29.59375 74.21875 
Q 40.828125 74.21875 47.359375 69.109375 
Q 53.90625 64.015625 53.90625 55.328125 
Q 53.90625 49.265625 50.4375 45.09375 
Q 46.96875 40.921875 40.578125 39.3125 
z
" id="DejaVuSans-33"/>
      </defs>
      <g transform="translate(263.022085 231.838437)scale(0.1 -0.1)">
       <use xlink:href="#DejaVuSans-33"/>
       <use x="63.623047" xlink:href="#DejaVuSans-30"/>
       <use x="127.246094" xlink:href="#DejaVuSans-30"/>
      </g>
     </g>
    </g>
    <g id="text_8">
     <!-- Number of rows in training set -->
     <defs>
      <path d="M 9.8125 72.90625 
L 23.09375 72.90625 
L 55.421875 11.921875 
L 55.421875 72.90625 
L 64.984375 72.90625 
L 64.984375 0 
L 51.703125 0 
L 19.390625 60.984375 
L 19.390625 0 
L 9.8125 0 
z
" id="DejaVuSans-4e"/>
      <path d="M 8.5 21.578125 
L 8.5 54.6875 
L 17.484375 54.6875 
L 17.484375 21.921875 
Q 17.484375 14.15625 20.5 10.265625 
Q 23.53125 6.390625 29.59375 6.390625 
Q 36.859375 6.390625 41.078125 11.03125 
Q 45.3125 15.671875 45.3125 23.6875 
L 45.3125 54.6875 
L 54.296875 54.6875 
L 54.296875 0 
L 45.3125 0 
L 45.3125 8.40625 
Q 42.046875 3.421875 37.71875 1 
Q 33.40625 -1.421875 27.6875 -1.421875 
Q 18.265625 -1.421875 13.375 4.4375 
Q 8.5 10.296875 8.5 21.578125 
z
M 31.109375 56 
z
" id="DejaVuSans-75"/>
      <path d="M 52 44.1875 
Q 55.375 50.25 60.0625 53.125 
Q 64.75 56 71.09375 56 
Q 79.640625 56 84.28125 50.015625 
Q 88.921875 44.046875 88.921875 33.015625 
L 88.921875 0 
L 79.890625 0 
L 79.890625 32.71875 
Q 79.890625 40.578125 77.09375 44.375 
Q 74.3125 48.1875 68.609375 48.1875 
Q 61.625 48.1875 57.5625 43.546875 
Q 53.515625 38.921875 53.515625 30.90625 
L 53.515625 0 
L 44.484375 0 
L 44.484375 32.71875 
Q 44.484375 40.625 41.703125 44.40625 
Q 38.921875 48.1875 33.109375 48.1875 
Q 26.21875 48.1875 22.15625 43.53125 
Q 18.109375 38.875 18.109375 30.90625 
L 18.109375 0 
L 9.078125 0 
L 9.078125 54.6875 
L 18.109375 54.6875 
L 18.109375 46.1875 
Q 21.1875 51.21875 25.484375 53.609375 
Q 29.78125 56 35.6875 56 
Q 41.65625 56 45.828125 52.96875 
Q 50 49.953125 52 44.1875 
z
" id="DejaVuSans-6d"/>
      <path d="M 48.6875 27.296875 
Q 48.6875 37.203125 44.609375 42.84375 
Q 40.53125 48.484375 33.40625 48.484375 
Q 26.265625 48.484375 22.1875 42.84375 
Q 18.109375 37.203125 18.109375 27.296875 
Q 18.109375 17.390625 22.1875 11.75 
Q 26.265625 6.109375 33.40625 6.109375 
Q 40.53125 6.109375 44.609375 11.75 
Q 48.6875 17.390625 48.6875 27.296875 
z
M 18.109375 46.390625 
Q 20.953125 51.265625 25.265625 53.625 
Q 29.59375 56 35.59375 56 
Q 45.5625 56 51.78125 48.09375 
Q 58.015625 40.1875 58.015625 27.296875 
Q 58.015625 14.40625 51.78125 6.484375 
Q 45.5625 -1.421875 35.59375 -1.421875 
Q 29.59375 -1.421875 25.265625 0.953125 
Q 20.953125 3.328125 18.109375 8.203125 
L 18.109375 0 
L 9.078125 0 
L 9.078125 75.984375 
L 18.109375 75.984375 
z
" id="DejaVuSans-62"/>
      <path d="M 56.203125 29.59375 
L 56.203125 25.203125 
L 14.890625 25.203125 
Q 15.484375 15.921875 20.484375 11.0625 
Q 25.484375 6.203125 34.421875 6.203125 
Q 39.59375 6.203125 44.453125 7.46875 
Q 49.3125 8.734375 54.109375 11.28125 
L 54.109375 2.78125 
Q 49.265625 0.734375 44.1875 -0.34375 
Q 39.109375 -1.421875 33.890625 -1.421875 
Q 20.796875 -1.421875 13.15625 6.1875 
Q 5.515625 13.8125 5.515625 26.8125 
Q 5.515625 40.234375 12.765625 48.109375 
Q 20.015625 56 32.328125 56 
Q 43.359375 56 49.78125 48.890625 
Q 56.203125 41.796875 56.203125 29.59375 
z
M 47.21875 32.234375 
Q 47.125 39.59375 43.09375 43.984375 
Q 39.0625 48.390625 32.421875 48.390625 
Q 24.90625 48.390625 20.390625 44.140625 
Q 15.875 39.890625 15.1875 32.171875 
z
" id="DejaVuSans-65"/>
      <path d="M 41.109375 46.296875 
Q 39.59375 47.171875 37.8125 47.578125 
Q 36.03125 48 33.890625 48 
Q 26.265625 48 22.1875 43.046875 
Q 18.109375 38.09375 18.109375 28.8125 
L 18.109375 0 
L 9.078125 0 
L 9.078125 54.6875 
L 18.109375 54.6875 
L 18.109375 46.1875 
Q 20.953125 51.171875 25.484375 53.578125 
Q 30.03125 56 36.53125 56 
Q 37.453125 56 38.578125 55.875 
Q 39.703125 55.765625 41.0625 55.515625 
z
" id="DejaVuSans-72"/>
      <path id="DejaVuSans-20"/>
      <path d="M 30.609375 48.390625 
Q 23.390625 48.390625 19.1875 42.75 
Q 14.984375 37.109375 14.984375 27.296875 
Q 14.984375 17.484375 19.15625 11.84375 
Q 23.34375 6.203125 30.609375 6.203125 
Q 37.796875 6.203125 41.984375 11.859375 
Q 46.1875 17.53125 46.1875 27.296875 
Q 46.1875 37.015625 41.984375 42.703125 
Q 37.796875 48.390625 30.609375 48.390625 
z
M 30.609375 56 
Q 42.328125 56 49.015625 48.375 
Q 55.71875 40.765625 55.71875 27.296875 
Q 55.71875 13.875 49.015625 6.21875 
Q 42.328125 -1.421875 30.609375 -1.421875 
Q 18.84375 -1.421875 12.171875 6.21875 
Q 5.515625 13.875 5.515625 27.296875 
Q 5.515625 40.765625 12.171875 48.375 
Q 18.84375 56 30.609375 56 
z
" id="DejaVuSans-6f"/>
      <path d="M 37.109375 75.984375 
L 37.109375 68.5 
L 28.515625 68.5 
Q 23.6875 68.5 21.796875 66.546875 
Q 19.921875 64.59375 19.921875 59.515625 
L 19.921875 54.6875 
L 34.71875 54.6875 
L 34.71875 47.703125 
L 19.921875 47.703125 
L 19.921875 0 
L 10.890625 0 
L 10.890625 47.703125 
L 2.296875 47.703125 
L 2.296875 54.6875 
L 10.890625 54.6875 
L 10.890625 58.5 
Q 10.890625 67.625 15.140625 71.796875 
Q 19.390625 75.984375 28.609375 75.984375 
z
" id="DejaVuSans-66"/>
      <path d="M 4.203125 54.6875 
L 13.1875 54.6875 
L 24.421875 12.015625 
L 35.59375 54.6875 
L 46.1875 54.6875 
L 57.421875 12.015625 
L 68.609375 54.6875 
L 77.59375 54.6875 
L 63.28125 0 
L 52.6875 0 
L 40.921875 44.828125 
L 29.109375 0 
L 18.5 0 
z
" id="DejaVuSans-77"/>
      <path d="M 44.28125 53.078125 
L 44.28125 44.578125 
Q 40.484375 46.53125 36.375 47.5 
Q 32.28125 48.484375 27.875 48.484375 
Q 21.1875 48.484375 17.84375 46.4375 
Q 14.5 44.390625 14.5 40.28125 
Q 14.5 37.15625 16.890625 35.375 
Q 19.28125 33.59375 26.515625 31.984375 
L 29.59375 31.296875 
Q 39.15625 29.25 43.1875 25.515625 
Q 47.21875 21.78125 47.21875 15.09375 
Q 47.21875 7.46875 41.1875 3.015625 
Q 35.15625 -1.421875 24.609375 -1.421875 
Q 20.21875 -1.421875 15.453125 -0.5625 
Q 10.6875 0.296875 5.421875 2 
L 5.421875 11.28125 
Q 10.40625 8.6875 15.234375 7.390625 
Q 20.0625 6.109375 24.8125 6.109375 
Q 31.15625 6.109375 34.5625 8.28125 
Q 37.984375 10.453125 37.984375 14.40625 
Q 37.984375 18.0625 35.515625 20.015625 
Q 33.0625 21.96875 24.703125 23.78125 
L 21.578125 24.515625 
Q 13.234375 26.265625 9.515625 29.90625 
Q 5.8125 33.546875 5.8125 39.890625 
Q 5.8125 47.609375 11.28125 51.796875 
Q 16.75 56 26.8125 56 
Q 31.78125 56 36.171875 55.265625 
Q 40.578125 54.546875 44.28125 53.078125 
z
" id="DejaVuSans-73"/>
      <path d="M 9.421875 54.6875 
L 18.40625 54.6875 
L 18.40625 0 
L 9.421875 0 
z
M 9.421875 75.984375 
L 18.40625 75.984375 
L 18.40625 64.59375 
L 9.421875 64.59375 
z
" id="DejaVuSans-69"/>
      <path d="M 54.890625 33.015625 
L 54.890625 0 
L 45.90625 0 
L 45.90625 32.71875 
Q 45.90625 40.484375 42.875 44.328125 
Q 39.84375 48.1875 33.796875 48.1875 
Q 26.515625 48.1875 22.3125 43.546875 
Q 18.109375 38.921875 18.109375 30.90625 
L 18.109375 0 
L 9.078125 0 
L 9.078125 54.6875 
L 18.109375 54.6875 
L 18.109375 46.1875 
Q 21.34375 51.125 25.703125 53.5625 
Q 30.078125 56 35.796875 56 
Q 45.21875 56 50.046875 50.171875 
Q 54.890625 44.34375 54.890625 33.015625 
z
" id="DejaVuSans-6e"/>
      <path d="M 18.3125 70.21875 
L 18.3125 54.6875 
L 36.8125 54.6875 
L 36.8125 47.703125 
L 18.3125 47.703125 
L 18.3125 18.015625 
Q 18.3125 11.328125 20.140625 9.421875 
Q 21.96875 7.515625 27.59375 7.515625 
L 36.8125 7.515625 
L 36.8125 0 
L 27.59375 0 
Q 17.1875 0 13.234375 3.875 
Q 9.28125 7.765625 9.28125 18.015625 
L 9.28125 47.703125 
L 2.6875 47.703125 
L 2.6875 54.6875 
L 9.28125 54.6875 
L 9.28125 70.21875 
z
" id="DejaVuSans-74"/>
      <path d="M 34.28125 27.484375 
Q 23.390625 27.484375 19.1875 25 
Q 14.984375 22.515625 14.984375 16.5 
Q 14.984375 11.71875 18.140625 8.90625 
Q 21.296875 6.109375 26.703125 6.109375 
Q 34.1875 6.109375 38.703125 11.40625 
Q 43.21875 16.703125 43.21875 25.484375 
L 43.21875 27.484375 
z
M 52.203125 31.203125 
L 52.203125 0 
L 43.21875 0 
L 43.21875 8.296875 
Q 40.140625 3.328125 35.546875 0.953125 
Q 30.953125 -1.421875 24.3125 -1.421875 
Q 15.921875 -1.421875 10.953125 3.296875 
Q 6 8.015625 6 15.921875 
Q 6 25.140625 12.171875 29.828125 
Q 18.359375 34.515625 30.609375 34.515625 
L 43.21875 34.515625 
L 43.21875 35.40625 
Q 43.21875 41.609375 39.140625 45 
Q 35.0625 48.390625 27.6875 48.390625 
Q 23 48.390625 18.546875 47.265625 
Q 14.109375 46.140625 10.015625 43.890625 
L 10.015625 52.203125 
Q 14.9375 54.109375 19.578125 55.046875 
Q 24.21875 56 28.609375 56 
Q 40.484375 56 46.34375 49.84375 
Q 52.203125 43.703125 52.203125 31.203125 
z
" id="DejaVuSans-61"/>
      <path d="M 45.40625 27.984375 
Q 45.40625 37.75 41.375 43.109375 
Q 37.359375 48.484375 30.078125 48.484375 
Q 22.859375 48.484375 18.828125 43.109375 
Q 14.796875 37.75 14.796875 27.984375 
Q 14.796875 18.265625 18.828125 12.890625 
Q 22.859375 7.515625 30.078125 7.515625 
Q 37.359375 7.515625 41.375 12.890625 
Q 45.40625 18.265625 45.40625 27.984375 
z
M 54.390625 6.78125 
Q 54.390625 -7.171875 48.1875 -13.984375 
Q 42 -20.796875 29.203125 -20.796875 
Q 24.46875 -20.796875 20.265625 -20.09375 
Q 16.0625 -19.390625 12.109375 -17.921875 
L 12.109375 -9.1875 
Q 16.0625 -11.328125 19.921875 -12.34375 
Q 23.78125 -13.375 27.78125 -13.375 
Q 36.625 -13.375 41.015625 -8.765625 
Q 45.40625 -4.15625 45.40625 5.171875 
L 45.40625 9.625 
Q 42.625 4.78125 38.28125 2.390625 
Q 33.9375 0 27.875 0 
Q 17.828125 0 11.671875 7.65625 
Q 5.515625 15.328125 5.515625 27.984375 
Q 5.515625 40.671875 11.671875 48.328125 
Q 17.828125 56 27.875 56 
Q 33.9375 56 38.28125 53.609375 
Q 42.625 51.21875 45.40625 46.390625 
L 45.40625 54.6875 
L 54.390625 54.6875 
z
" id="DejaVuSans-67"/>
     </defs>
     <g transform="translate(100.682589 245.516562)scale(0.1 -0.1)">
      <use xlink:href="#DejaVuSans-4e"/>
      <use x="74.804688" xlink:href="#DejaVuSans-75"/>
      <use x="138.183594" xlink:href="#DejaVuSans-6d"/>
      <use x="235.595703" xlink:href="#DejaVuSans-62"/>
      <use x="299.072266" xlink:href="#DejaVuSans-65"/>
      <use x="360.595703" xlink:href="#DejaVuSans-72"/>
      <use x="401.708984" xlink:href="#DejaVuSans-20"/>
      <use x="433.496094" xlink:href="#DejaVuSans-6f"/>
      <use x="494.677734" xlink:href="#DejaVuSans-66"/>
      <use x="529.882812" xlink:href="#DejaVuSans-20"/>
      <use x="561.669922" xlink:href="#DejaVuSans-72"/>
      <use x="602.751953" xlink:href="#DejaVuSans-6f"/>
      <use x="663.933594" xlink:href="#DejaVuSans-77"/>
      <use x="745.720703" xlink:href="#DejaVuSans-73"/>
      <use x="797.820312" xlink:href="#DejaVuSans-20"/>
      <use x="829.607422" xlink:href="#DejaVuSans-69"/>
      <use x="857.390625" xlink:href="#DejaVuSans-6e"/>
      <use x="920.769531" xlink:href="#DejaVuSans-20"/>
      <use x="952.556641" xlink:href="#DejaVuSans-74"/>
      <use x="991.765625" xlink:href="#DejaVuSans-72"/>
      <use x="1032.878906" xlink:href="#DejaVuSans-61"/>
      <use x="1094.158203" xlink:href="#DejaVuSans-69"/>
      <use x="1121.941406" xlink:href="#DejaVuSans-6e"/>
      <use x="1185.320312" xlink:href="#DejaVuSans-69"/>
      <use x="1213.103516" xlink:href="#DejaVuSans-6e"/>
      <use x="1276.482422" xlink:href="#DejaVuSans-67"/>
      <use x="1339.958984" xlink:href="#DejaVuSans-20"/>
      <use x="1371.746094" xlink:href="#DejaVuSans-73"/>
      <use x="1423.845703" xlink:href="#DejaVuSans-65"/>
      <use x="1485.369141" xlink:href="#DejaVuSans-74"/>
     </g>
    </g>
   </g>
   <g id="matplotlib.axis_2">
    <g id="ytick_1">
     <g id="line2d_8">
      <defs>
       <path d="M 0 0 
L -3.5 0 
" id="mc2f61d92cc" style="stroke:#000000;stroke-width:0.8;"/>
      </defs>
      <g>
       <use style="stroke:#000000;stroke-width:0.8;" x="56.098304" xlink:href="#mc2f61d92cc" y="217.24"/>
      </g>
     </g>
     <g id="text_9">
      <!-- $\mathdefault{10^{-2}}$ -->
      <defs>
       <path d="M 10.59375 35.5 
L 73.1875 35.5 
L 73.1875 27.203125 
L 10.59375 27.203125 
z
" id="DejaVuSans-2212"/>
      </defs>
      <g transform="translate(25.598304 221.039219)scale(0.1 -0.1)">
       <use transform="translate(0 0.765625)" xlink:href="#DejaVuSans-31"/>
       <use transform="translate(63.623047 0.765625)" xlink:href="#DejaVuSans-30"/>
       <use transform="translate(128.203125 39.046875)scale(0.7)" xlink:href="#DejaVuSans-2212"/>
       <use transform="translate(186.855469 39.046875)scale(0.7)" xlink:href="#DejaVuSans-32"/>
      </g>
     </g>
    </g>
    <g id="ytick_2">
     <g id="line2d_9">
      <g>
       <use style="stroke:#000000;stroke-width:0.8;" x="56.098304" xlink:href="#mc2f61d92cc" y="128.618817"/>
      </g>
     </g>
     <g id="text_10">
      <!-- $\mathdefault{10^{-1}}$ -->
      <g transform="translate(25.598304 132.418036)scale(0.1 -0.1)">
       <use transform="translate(0 0.684375)" xlink:href="#DejaVuSans-31"/>
       <use transform="translate(63.623047 0.684375)" xlink:href="#DejaVuSans-30"/>
       <use transform="translate(128.203125 38.965625)scale(0.7)" xlink:href="#DejaVuSans-2212"/>
       <use transform="translate(186.855469 38.965625)scale(0.7)" xlink:href="#DejaVuSans-31"/>
      </g>
     </g>
    </g>
    <g id="ytick_3">
     <g id="line2d_10">
      <g>
       <use style="stroke:#000000;stroke-width:0.8;" x="56.098304" xlink:href="#mc2f61d92cc" y="39.997634"/>
      </g>
     </g>
     <g id="text_11">
      <!-- $\mathdefault{10^{0}}$ -->
      <g transform="translate(31.498304 43.796853)scale(0.1 -0.1)">
       <use transform="translate(0 0.765625)" xlink:href="#DejaVuSans-31"/>
       <use transform="translate(63.623047 0.765625)" xlink:href="#DejaVuSans-30"/>
       <use transform="translate(128.203125 39.046875)scale(0.7)" xlink:href="#DejaVuSans-30"/>
      </g>
     </g>
    </g>
    <g id="ytick_4">
     <g id="line2d_11">
      <defs>
       <path d="M 0 0 
L -2 0 
" id="m9b9e6e77d4" style="stroke:#000000;stroke-width:0.6;"/>
      </defs>
      <g>
       <use style="stroke:#000000;stroke-width:0.6;" x="56.098304" xlink:href="#m9b9e6e77d4" y="190.562366"/>
      </g>
     </g>
    </g>
    <g id="ytick_5">
     <g id="line2d_12">
      <g>
       <use style="stroke:#000000;stroke-width:0.6;" x="56.098304" xlink:href="#m9b9e6e77d4" y="174.95695"/>
      </g>
     </g>
    </g>
    <g id="ytick_6">
     <g id="line2d_13">
      <g>
       <use style="stroke:#000000;stroke-width:0.6;" x="56.098304" xlink:href="#m9b9e6e77d4" y="163.884731"/>
      </g>
     </g>
    </g>
    <g id="ytick_7">
     <g id="line2d_14">
      <g>
       <use style="stroke:#000000;stroke-width:0.6;" x="56.098304" xlink:href="#m9b9e6e77d4" y="155.296451"/>
      </g>
     </g>
    </g>
    <g id="ytick_8">
     <g id="line2d_15">
      <g>
       <use style="stroke:#000000;stroke-width:0.6;" x="56.098304" xlink:href="#m9b9e6e77d4" y="148.279316"/>
      </g>
     </g>
    </g>
    <g id="ytick_9">
     <g id="line2d_16">
      <g>
       <use style="stroke:#000000;stroke-width:0.6;" x="56.098304" xlink:href="#m9b9e6e77d4" y="142.346412"/>
      </g>
     </g>
    </g>
    <g id="ytick_10">
     <g id="line2d_17">
      <g>
       <use style="stroke:#000000;stroke-width:0.6;" x="56.098304" xlink:href="#m9b9e6e77d4" y="137.207097"/>
      </g>
     </g>
    </g>
    <g id="ytick_11">
     <g id="line2d_18">
      <g>
       <use style="stroke:#000000;stroke-width:0.6;" x="56.098304" xlink:href="#m9b9e6e77d4" y="132.6739"/>
      </g>
     </g>
    </g>
    <g id="ytick_12">
     <g id="line2d_19">
      <g>
       <use style="stroke:#000000;stroke-width:0.6;" x="56.098304" xlink:href="#m9b9e6e77d4" y="101.941183"/>
      </g>
     </g>
    </g>
    <g id="ytick_13">
     <g id="line2d_20">
      <g>
       <use style="stroke:#000000;stroke-width:0.6;" x="56.098304" xlink:href="#m9b9e6e77d4" y="86.335767"/>
      </g>
     </g>
    </g>
    <g id="ytick_14">
     <g id="line2d_21">
      <g>
       <use style="stroke:#000000;stroke-width:0.6;" x="56.098304" xlink:href="#m9b9e6e77d4" y="75.263549"/>
      </g>
     </g>
    </g>
    <g id="ytick_15">
     <g id="line2d_22">
      <g>
       <use style="stroke:#000000;stroke-width:0.6;" x="56.098304" xlink:href="#m9b9e6e77d4" y="66.675269"/>
      </g>
     </g>
    </g>
    <g id="ytick_16">
     <g id="line2d_23">
      <g>
       <use style="stroke:#000000;stroke-width:0.6;" x="56.098304" xlink:href="#m9b9e6e77d4" y="59.658133"/>
      </g>
     </g>
    </g>
    <g id="ytick_17">
     <g id="line2d_24">
      <g>
       <use style="stroke:#000000;stroke-width:0.6;" x="56.098304" xlink:href="#m9b9e6e77d4" y="53.725229"/>
      </g>
     </g>
    </g>
    <g id="ytick_18">
     <g id="line2d_25">
      <g>
       <use style="stroke:#000000;stroke-width:0.6;" x="56.098304" xlink:href="#m9b9e6e77d4" y="48.585914"/>
      </g>
     </g>
    </g>
    <g id="ytick_19">
     <g id="line2d_26">
      <g>
       <use style="stroke:#000000;stroke-width:0.6;" x="56.098304" xlink:href="#m9b9e6e77d4" y="44.052717"/>
      </g>
     </g>
    </g>
    <g id="ytick_20">
     <g id="line2d_27">
      <g>
       <use style="stroke:#000000;stroke-width:0.6;" x="56.098304" xlink:href="#m9b9e6e77d4" y="13.32"/>
      </g>
     </g>
    </g>
    <g id="text_12">
     <!-- RMSE over validation set (eV/Å) -->
     <defs>
      <path d="M 44.390625 34.1875 
Q 47.5625 33.109375 50.5625 29.59375 
Q 53.5625 26.078125 56.59375 19.921875 
L 66.609375 0 
L 56 0 
L 46.6875 18.703125 
Q 43.0625 26.03125 39.671875 28.421875 
Q 36.28125 30.8125 30.421875 30.8125 
L 19.671875 30.8125 
L 19.671875 0 
L 9.8125 0 
L 9.8125 72.90625 
L 32.078125 72.90625 
Q 44.578125 72.90625 50.734375 67.671875 
Q 56.890625 62.453125 56.890625 51.90625 
Q 56.890625 45.015625 53.6875 40.46875 
Q 50.484375 35.9375 44.390625 34.1875 
z
M 19.671875 64.796875 
L 19.671875 38.921875 
L 32.078125 38.921875 
Q 39.203125 38.921875 42.84375 42.21875 
Q 46.484375 45.515625 46.484375 51.90625 
Q 46.484375 58.296875 42.84375 61.546875 
Q 39.203125 64.796875 32.078125 64.796875 
z
" id="DejaVuSans-52"/>
      <path d="M 9.8125 72.90625 
L 24.515625 72.90625 
L 43.109375 23.296875 
L 61.8125 72.90625 
L 76.515625 72.90625 
L 76.515625 0 
L 66.890625 0 
L 66.890625 64.015625 
L 48.09375 14.015625 
L 38.1875 14.015625 
L 19.390625 64.015625 
L 19.390625 0 
L 9.8125 0 
z
" id="DejaVuSans-4d"/>
      <path d="M 53.515625 70.515625 
L 53.515625 60.890625 
Q 47.90625 63.578125 42.921875 64.890625 
Q 37.9375 66.21875 33.296875 66.21875 
Q 25.25 66.21875 20.875 63.09375 
Q 16.5 59.96875 16.5 54.203125 
Q 16.5 49.359375 19.40625 46.890625 
Q 22.3125 44.4375 30.421875 42.921875 
L 36.375 41.703125 
Q 47.40625 39.59375 52.65625 34.296875 
Q 57.90625 29 57.90625 20.125 
Q 57.90625 9.515625 50.796875 4.046875 
Q 43.703125 -1.421875 29.984375 -1.421875 
Q 24.8125 -1.421875 18.96875 -0.25 
Q 13.140625 0.921875 6.890625 3.21875 
L 6.890625 13.375 
Q 12.890625 10.015625 18.65625 8.296875 
Q 24.421875 6.59375 29.984375 6.59375 
Q 38.421875 6.59375 43.015625 9.90625 
Q 47.609375 13.234375 47.609375 19.390625 
Q 47.609375 24.75 44.3125 27.78125 
Q 41.015625 30.8125 33.5 32.328125 
L 27.484375 33.5 
Q 16.453125 35.6875 11.515625 40.375 
Q 6.59375 45.0625 6.59375 53.421875 
Q 6.59375 63.09375 13.40625 68.65625 
Q 20.21875 74.21875 32.171875 74.21875 
Q 37.3125 74.21875 42.625 73.28125 
Q 47.953125 72.359375 53.515625 70.515625 
z
" id="DejaVuSans-53"/>
      <path d="M 9.8125 72.90625 
L 55.90625 72.90625 
L 55.90625 64.59375 
L 19.671875 64.59375 
L 19.671875 43.015625 
L 54.390625 43.015625 
L 54.390625 34.71875 
L 19.671875 34.71875 
L 19.671875 8.296875 
L 56.78125 8.296875 
L 56.78125 0 
L 9.8125 0 
z
" id="DejaVuSans-45"/>
      <path d="M 2.984375 54.6875 
L 12.5 54.6875 
L 29.59375 8.796875 
L 46.6875 54.6875 
L 56.203125 54.6875 
L 35.6875 0 
L 23.484375 0 
z
" id="DejaVuSans-76"/>
      <path d="M 9.421875 75.984375 
L 18.40625 75.984375 
L 18.40625 0 
L 9.421875 0 
z
" id="DejaVuSans-6c"/>
      <path d="M 45.40625 46.390625 
L 45.40625 75.984375 
L 54.390625 75.984375 
L 54.390625 0 
L 45.40625 0 
L 45.40625 8.203125 
Q 42.578125 3.328125 38.25 0.953125 
Q 33.9375 -1.421875 27.875 -1.421875 
Q 17.96875 -1.421875 11.734375 6.484375 
Q 5.515625 14.40625 5.515625 27.296875 
Q 5.515625 40.1875 11.734375 48.09375 
Q 17.96875 56 27.875 56 
Q 33.9375 56 38.25 53.625 
Q 42.578125 51.265625 45.40625 46.390625 
z
M 14.796875 27.296875 
Q 14.796875 17.390625 18.875 11.75 
Q 22.953125 6.109375 30.078125 6.109375 
Q 37.203125 6.109375 41.296875 11.75 
Q 45.40625 17.390625 45.40625 27.296875 
Q 45.40625 37.203125 41.296875 42.84375 
Q 37.203125 48.484375 30.078125 48.484375 
Q 22.953125 48.484375 18.875 42.84375 
Q 14.796875 37.203125 14.796875 27.296875 
z
" id="DejaVuSans-64"/>
      <path d="M 31 75.875 
Q 24.46875 64.65625 21.28125 53.65625 
Q 18.109375 42.671875 18.109375 31.390625 
Q 18.109375 20.125 21.3125 9.0625 
Q 24.515625 -2 31 -13.1875 
L 23.1875 -13.1875 
Q 15.875 -1.703125 12.234375 9.375 
Q 8.59375 20.453125 8.59375 31.390625 
Q 8.59375 42.28125 12.203125 53.3125 
Q 15.828125 64.359375 23.1875 75.875 
z
" id="DejaVuSans-28"/>
      <path d="M 28.609375 0 
L 0.78125 72.90625 
L 11.078125 72.90625 
L 34.1875 11.53125 
L 57.328125 72.90625 
L 67.578125 72.90625 
L 39.796875 0 
z
" id="DejaVuSans-56"/>
      <path d="M 25.390625 72.90625 
L 33.6875 72.90625 
L 8.296875 -9.28125 
L 0 -9.28125 
z
" id="DejaVuSans-2f"/>
      <path d="M 41.609375 79.390625 
Q 41.609375 82.46875 39.421875 84.640625 
Q 37.25 86.8125 34.1875 86.8125 
Q 31.0625 86.8125 28.9375 84.6875 
Q 26.8125 82.5625 26.8125 79.390625 
Q 26.8125 76.3125 28.953125 74.15625 
Q 31.109375 72.015625 34.1875 72.015625 
Q 37.25 72.015625 39.421875 74.15625 
Q 41.609375 76.3125 41.609375 79.390625 
z
M 34.1875 63.1875 
L 20.90625 26.90625 
L 47.515625 26.90625 
z
M 26.8125 68.21875 
Q 23.828125 70.21875 22.3125 73.015625 
Q 20.796875 75.828125 20.796875 79.390625 
Q 20.796875 85.015625 24.671875 88.921875 
Q 28.5625 92.828125 34.1875 92.828125 
Q 39.75 92.828125 43.671875 88.890625 
Q 47.609375 84.96875 47.609375 79.390625 
Q 47.609375 75.984375 46.0625 73.09375 
Q 44.53125 70.21875 41.609375 68.21875 
L 67.578125 0 
L 57.328125 0 
L 50.6875 18.703125 
L 17.828125 18.703125 
L 11.1875 0 
L 0.78125 0 
z
" id="DejaVuSans-c5"/>
      <path d="M 8.015625 75.875 
L 15.828125 75.875 
Q 23.140625 64.359375 26.78125 53.3125 
Q 30.421875 42.28125 30.421875 31.390625 
Q 30.421875 20.453125 26.78125 9.375 
Q 23.140625 -1.703125 15.828125 -13.1875 
L 8.015625 -13.1875 
Q 14.5 -2 17.703125 9.0625 
Q 20.90625 20.125 20.90625 31.390625 
Q 20.90625 42.671875 17.703125 53.65625 
Q 14.5 64.65625 8.015625 75.875 
z
" id="DejaVuSans-29"/>
     </defs>
     <g transform="translate(19.518616 194.670625)rotate(-90)scale(0.1 -0.1)">
      <use xlink:href="#DejaVuSans-52"/>
      <use x="69.482422" xlink:href="#DejaVuSans-4d"/>
      <use x="155.761719" xlink:href="#DejaVuSans-53"/>
      <use x="219.238281" xlink:href="#DejaVuSans-45"/>
      <use x="282.421875" xlink:href="#DejaVuSans-20"/>
      <use x="314.208984" xlink:href="#DejaVuSans-6f"/>
      <use x="375.390625" xlink:href="#DejaVuSans-76"/>
      <use x="434.570312" xlink:href="#DejaVuSans-65"/>
      <use x="496.09375" xlink:href="#DejaVuSans-72"/>
      <use x="537.207031" xlink:href="#DejaVuSans-20"/>
      <use x="568.994141" xlink:href="#DejaVuSans-76"/>
      <use x="628.173828" xlink:href="#DejaVuSans-61"/>
      <use x="689.453125" xlink:href="#DejaVuSans-6c"/>
      <use x="717.236328" xlink:href="#DejaVuSans-69"/>
      <use x="745.019531" xlink:href="#DejaVuSans-64"/>
      <use x="808.496094" xlink:href="#DejaVuSans-61"/>
      <use x="869.775391" xlink:href="#DejaVuSans-74"/>
      <use x="908.984375" xlink:href="#DejaVuSans-69"/>
      <use x="936.767578" xlink:href="#DejaVuSans-6f"/>
      <use x="997.949219" xlink:href="#DejaVuSans-6e"/>
      <use x="1061.328125" xlink:href="#DejaVuSans-20"/>
      <use x="1093.115234" xlink:href="#DejaVuSans-73"/>
      <use x="1145.214844" xlink:href="#DejaVuSans-65"/>
      <use x="1206.738281" xlink:href="#DejaVuSans-74"/>
      <use x="1245.947266" xlink:href="#DejaVuSans-20"/>
      <use x="1277.734375" xlink:href="#DejaVuSans-28"/>
      <use x="1316.748047" xlink:href="#DejaVuSans-65"/>
      <use x="1378.271484" xlink:href="#DejaVuSans-56"/>
      <use x="1446.679688" xlink:href="#DejaVuSans-2f"/>
      <use x="1480.371094" xlink:href="#DejaVuSans-c5"/>
      <use x="1548.779297" xlink:href="#DejaVuSans-29"/>
     </g>
    </g>
   </g>
   <g id="LineCollection_1">
    <path clip-path="url(#p2cc9e6b19c)" d="M 67.081108 79.145558 
L 67.081108 70.939315 
" style="fill:none;stroke:#d62728;stroke-width:1.5;"/>
    <path clip-path="url(#p2cc9e6b19c)" d="M 74.166789 81.148894 
L 74.166789 74.229593 
" style="fill:none;stroke:#d62728;stroke-width:1.5;"/>
    <path clip-path="url(#p2cc9e6b19c)" d="M 81.252469 86.580498 
L 81.252469 76.421401 
" style="fill:none;stroke:#d62728;stroke-width:1.5;"/>
    <path clip-path="url(#p2cc9e6b19c)" d="M 88.338149 89.472423 
L 88.338149 78.726096 
" style="fill:none;stroke:#d62728;stroke-width:1.5;"/>
    <path clip-path="url(#p2cc9e6b19c)" d="M 95.423829 92.414464 
L 95.423829 84.415047 
" style="fill:none;stroke:#d62728;stroke-width:1.5;"/>
    <path clip-path="url(#p2cc9e6b19c)" d="M 102.509509 103.404849 
L 102.509509 90.782005 
" style="fill:none;stroke:#d62728;stroke-width:1.5;"/>
    <path clip-path="url(#p2cc9e6b19c)" d="M 109.59519 109.109126 
L 109.59519 92.872411 
" style="fill:none;stroke:#d62728;stroke-width:1.5;"/>
    <path clip-path="url(#p2cc9e6b19c)" d="M 116.68087 107.290168 
L 116.68087 97.903084 
" style="fill:none;stroke:#d62728;stroke-width:1.5;"/>
    <path clip-path="url(#p2cc9e6b19c)" d="M 123.76655 110.383148 
L 123.76655 103.81738 
" style="fill:none;stroke:#d62728;stroke-width:1.5;"/>
    <path clip-path="url(#p2cc9e6b19c)" d="M 130.85223 127.533338 
L 130.85223 113.267417 
" style="fill:none;stroke:#d62728;stroke-width:1.5;"/>
    <path clip-path="url(#p2cc9e6b19c)" d="M 137.937911 142.116777 
L 137.937911 128.686379 
" style="fill:none;stroke:#d62728;stroke-width:1.5;"/>
    <path clip-path="url(#p2cc9e6b19c)" d="M 145.023591 146.10491 
L 145.023591 123.162439 
" style="fill:none;stroke:#d62728;stroke-width:1.5;"/>
    <path clip-path="url(#p2cc9e6b19c)" d="M 152.109271 185.780188 
L 152.109271 160.772742 
" style="fill:none;stroke:#d62728;stroke-width:1.5;"/>
    <path clip-path="url(#p2cc9e6b19c)" d="M 159.194951 186.295611 
L 159.194951 176.896593 
" style="fill:none;stroke:#d62728;stroke-width:1.5;"/>
    <path clip-path="url(#p2cc9e6b19c)" d="M 166.280632 190.26984 
L 166.280632 180.766256 
" style="fill:none;stroke:#d62728;stroke-width:1.5;"/>
    <path clip-path="url(#p2cc9e6b19c)" d="M 173.366312 194.162325 
L 173.366312 186.207404 
" style="fill:none;stroke:#d62728;stroke-width:1.5;"/>
    <path clip-path="url(#p2cc9e6b19c)" d="M 180.451992 193.700322 
L 180.451992 188.223299 
" style="fill:none;stroke:#d62728;stroke-width:1.5;"/>
    <path clip-path="url(#p2cc9e6b19c)" d="M 187.537672 197.663671 
L 187.537672 189.72768 
" style="fill:none;stroke:#d62728;stroke-width:1.5;"/>
    <path clip-path="url(#p2cc9e6b19c)" d="M 194.623353 199.003966 
L 194.623353 191.088402 
" style="fill:none;stroke:#d62728;stroke-width:1.5;"/>
    <path clip-path="url(#p2cc9e6b19c)" d="M 201.709033 198.385414 
L 201.709033 192.756256 
" style="fill:none;stroke:#d62728;stroke-width:1.5;"/>
    <path clip-path="url(#p2cc9e6b19c)" d="M 208.794713 202.939554 
L 208.794713 195.349295 
" style="fill:none;stroke:#d62728;stroke-width:1.5;"/>
    <path clip-path="url(#p2cc9e6b19c)" d="M 215.880393 201.61584 
L 215.880393 192.326886 
" style="fill:none;stroke:#d62728;stroke-width:1.5;"/>
    <path clip-path="url(#p2cc9e6b19c)" d="M 222.966073 198.429237 
L 222.966073 193.896594 
" style="fill:none;stroke:#d62728;stroke-width:1.5;"/>
    <path clip-path="url(#p2cc9e6b19c)" d="M 230.051754 200.341151 
L 230.051754 195.011704 
" style="fill:none;stroke:#d62728;stroke-width:1.5;"/>
    <path clip-path="url(#p2cc9e6b19c)" d="M 237.137434 202.411254 
L 237.137434 196.408185 
" style="fill:none;stroke:#d62728;stroke-width:1.5;"/>
    <path clip-path="url(#p2cc9e6b19c)" d="M 244.223114 201.334313 
L 244.223114 196.623324 
" style="fill:none;stroke:#d62728;stroke-width:1.5;"/>
    <path clip-path="url(#p2cc9e6b19c)" d="M 251.308794 201.6203 
L 251.308794 198.375297 
" style="fill:none;stroke:#d62728;stroke-width:1.5;"/>
    <path clip-path="url(#p2cc9e6b19c)" d="M 258.394475 200.431148 
L 258.394475 198.121435 
" style="fill:none;stroke:#d62728;stroke-width:1.5;"/>
    <path clip-path="url(#p2cc9e6b19c)" d="M 265.480155 201.912941 
L 265.480155 199.212 
" style="fill:none;stroke:#d62728;stroke-width:1.5;"/>
    <path clip-path="url(#p2cc9e6b19c)" d="M 272.565835 200.987542 
L 272.565835 198.7008 
" style="fill:none;stroke:#d62728;stroke-width:1.5;"/>
    <path clip-path="url(#p2cc9e6b19c)" d="M 279.651515 200.992717 
L 279.651515 199.567185 
" style="fill:none;stroke:#d62728;stroke-width:1.5;"/>
    <path clip-path="url(#p2cc9e6b19c)" d="M 286.737196 200.556523 
L 286.737196 199.964025 
" style="fill:none;stroke:#d62728;stroke-width:1.5;"/>
   </g>
   <g id="line2d_28">
    <path clip-path="url(#p2cc9e6b19c)" d="M 67.081108 74.824135 
L 74.166789 77.533959 
L 81.252469 81.166722 
L 88.338149 83.725405 
L 95.423829 88.2073 
L 102.509509 96.578239 
L 109.59519 100.140825 
L 116.68087 102.311146 
L 123.76655 106.960423 
L 130.85223 119.743148 
L 137.937911 134.818704 
L 145.023591 132.948903 
L 152.109271 171.280139 
L 159.194951 181.309897 
L 166.280632 185.225456 
L 173.366312 189.979707 
L 180.451992 190.864466 
L 187.537672 193.491491 
L 194.623353 194.843047 
L 201.709033 195.468013 
L 208.794713 198.957615 
L 215.880393 196.691806 
L 222.966073 196.096228 
L 230.051754 197.584254 
L 237.137434 199.292798 
L 244.223114 198.906784 
L 251.308794 199.963609 
L 258.394475 199.258968 
L 265.480155 200.538782 
L 272.565835 199.82719 
L 279.651515 200.273351 
L 286.737196 200.259134 
" style="fill:none;stroke:#d62728;stroke-linecap:square;stroke-width:1.5;"/>
   </g>
   <g id="line2d_29">
    <defs>
     <path d="M 4 0 
L -4 -0 
" id="me68e23d87e" style="stroke:#d62728;"/>
    </defs>
    <g clip-path="url(#p2cc9e6b19c)">
     <use style="fill:#d62728;stroke:#d62728;" x="67.081108" xlink:href="#me68e23d87e" y="79.145558"/>
     <use style="fill:#d62728;stroke:#d62728;" x="74.166789" xlink:href="#me68e23d87e" y="81.148894"/>
     <use style="fill:#d62728;stroke:#d62728;" x="81.252469" xlink:href="#me68e23d87e" y="86.580498"/>
     <use style="fill:#d62728;stroke:#d62728;" x="88.338149" xlink:href="#me68e23d87e" y="89.472423"/>
     <use style="fill:#d62728;stroke:#d62728;" x="95.423829" xlink:href="#me68e23d87e" y="92.414464"/>
     <use style="fill:#d62728;stroke:#d62728;" x="102.509509" xlink:href="#me68e23d87e" y="103.404849"/>
     <use style="fill:#d62728;stroke:#d62728;" x="109.59519" xlink:href="#me68e23d87e" y="109.109126"/>
     <use style="fill:#d62728;stroke:#d62728;" x="116.68087" xlink:href="#me68e23d87e" y="107.290168"/>
     <use style="fill:#d62728;stroke:#d62728;" x="123.76655" xlink:href="#me68e23d87e" y="110.383148"/>
     <use style="fill:#d62728;stroke:#d62728;" x="130.85223" xlink:href="#me68e23d87e" y="127.533338"/>
     <use style="fill:#d62728;stroke:#d62728;" x="137.937911" xlink:href="#me68e23d87e" y="142.116777"/>
     <use style="fill:#d62728;stroke:#d62728;" x="145.023591" xlink:href="#me68e23d87e" y="146.10491"/>
     <use style="fill:#d62728;stroke:#d62728;" x="152.109271" xlink:href="#me68e23d87e" y="185.780188"/>
     <use style="fill:#d62728;stroke:#d62728;" x="159.194951" xlink:href="#me68e23d87e" y="186.295611"/>
     <use style="fill:#d62728;stroke:#d62728;" x="166.280632" xlink:href="#me68e23d87e" y="190.26984"/>
     <use style="fill:#d62728;stroke:#d62728;" x="173.366312" xlink:href="#me68e23d87e" y="194.162325"/>
     <use style="fill:#d62728;stroke:#d62728;" x="180.451992" xlink:href="#me68e23d87e" y="193.700322"/>
     <use style="fill:#d62728;stroke:#d62728;" x="187.537672" xlink:href="#me68e23d87e" y="197.663671"/>
     <use style="fill:#d62728;stroke:#d62728;" x="194.623353" xlink:href="#me68e23d87e" y="199.003966"/>
     <use style="fill:#d62728;stroke:#d62728;" x="201.709033" xlink:href="#me68e23d87e" y="198.385414"/>
     <use style="fill:#d62728;stroke:#d62728;" x="208.794713" xlink:href="#me68e23d87e" y="202.939554"/>
     <use style="fill:#d62728;stroke:#d62728;" x="215.880393" xlink:href="#me68e23d87e" y="201.61584"/>
     <use style="fill:#d62728;stroke:#d62728;" x="222.966073" xlink:href="#me68e23d87e" y="198.429237"/>
     <use style="fill:#d62728;stroke:#d62728;" x="230.051754" xlink:href="#me68e23d87e" y="200.341151"/>
     <use style="fill:#d62728;stroke:#d62728;" x="237.137434" xlink:href="#me68e23d87e" y="202.411254"/>
     <use style="fill:#d62728;stroke:#d62728;" x="244.223114" xlink:href="#me68e23d87e" y="201.334313"/>
     <use style="fill:#d62728;stroke:#d62728;" x="251.308794" xlink:href="#me68e23d87e" y="201.6203"/>
     <use style="fill:#d62728;stroke:#d62728;" x="258.394475" xlink:href="#me68e23d87e" y="200.431148"/>
     <use style="fill:#d62728;stroke:#d62728;" x="265.480155" xlink:href="#me68e23d87e" y="201.912941"/>
     <use style="fill:#d62728;stroke:#d62728;" x="272.565835" xlink:href="#me68e23d87e" y="200.987542"/>
     <use style="fill:#d62728;stroke:#d62728;" x="279.651515" xlink:href="#me68e23d87e" y="200.992717"/>
     <use style="fill:#d62728;stroke:#d62728;" x="286.737196" xlink:href="#me68e23d87e" y="200.556523"/>
    </g>
   </g>
   <g id="line2d_30">
    <g clip-path="url(#p2cc9e6b19c)">
     <use style="fill:#d62728;stroke:#d62728;" x="67.081108" xlink:href="#me68e23d87e" y="70.939315"/>
     <use style="fill:#d62728;stroke:#d62728;" x="74.166789" xlink:href="#me68e23d87e" y="74.229593"/>
     <use style="fill:#d62728;stroke:#d62728;" x="81.252469" xlink:href="#me68e23d87e" y="76.421401"/>
     <use style="fill:#d62728;stroke:#d62728;" x="88.338149" xlink:href="#me68e23d87e" y="78.726096"/>
     <use style="fill:#d62728;stroke:#d62728;" x="95.423829" xlink:href="#me68e23d87e" y="84.415047"/>
     <use style="fill:#d62728;stroke:#d62728;" x="102.509509" xlink:href="#me68e23d87e" y="90.782005"/>
     <use style="fill:#d62728;stroke:#d62728;" x="109.59519" xlink:href="#me68e23d87e" y="92.872411"/>
     <use style="fill:#d62728;stroke:#d62728;" x="116.68087" xlink:href="#me68e23d87e" y="97.903084"/>
     <use style="fill:#d62728;stroke:#d62728;" x="123.76655" xlink:href="#me68e23d87e" y="103.81738"/>
     <use style="fill:#d62728;stroke:#d62728;" x="130.85223" xlink:href="#me68e23d87e" y="113.267417"/>
     <use style="fill:#d62728;stroke:#d62728;" x="137.937911" xlink:href="#me68e23d87e" y="128.686379"/>
     <use style="fill:#d62728;stroke:#d62728;" x="145.023591" xlink:href="#me68e23d87e" y="123.162439"/>
     <use style="fill:#d62728;stroke:#d62728;" x="152.109271" xlink:href="#me68e23d87e" y="160.772742"/>
     <use style="fill:#d62728;stroke:#d62728;" x="159.194951" xlink:href="#me68e23d87e" y="176.896593"/>
     <use style="fill:#d62728;stroke:#d62728;" x="166.280632" xlink:href="#me68e23d87e" y="180.766256"/>
     <use style="fill:#d62728;stroke:#d62728;" x="173.366312" xlink:href="#me68e23d87e" y="186.207404"/>
     <use style="fill:#d62728;stroke:#d62728;" x="180.451992" xlink:href="#me68e23d87e" y="188.223299"/>
     <use style="fill:#d62728;stroke:#d62728;" x="187.537672" xlink:href="#me68e23d87e" y="189.72768"/>
     <use style="fill:#d62728;stroke:#d62728;" x="194.623353" xlink:href="#me68e23d87e" y="191.088402"/>
     <use style="fill:#d62728;stroke:#d62728;" x="201.709033" xlink:href="#me68e23d87e" y="192.756256"/>
     <use style="fill:#d62728;stroke:#d62728;" x="208.794713" xlink:href="#me68e23d87e" y="195.349295"/>
     <use style="fill:#d62728;stroke:#d62728;" x="215.880393" xlink:href="#me68e23d87e" y="192.326886"/>
     <use style="fill:#d62728;stroke:#d62728;" x="222.966073" xlink:href="#me68e23d87e" y="193.896594"/>
     <use style="fill:#d62728;stroke:#d62728;" x="230.051754" xlink:href="#me68e23d87e" y="195.011704"/>
     <use style="fill:#d62728;stroke:#d62728;" x="237.137434" xlink:href="#me68e23d87e" y="196.408185"/>
     <use style="fill:#d62728;stroke:#d62728;" x="244.223114" xlink:href="#me68e23d87e" y="196.623324"/>
     <use style="fill:#d62728;stroke:#d62728;" x="251.308794" xlink:href="#me68e23d87e" y="198.375297"/>
     <use style="fill:#d62728;stroke:#d62728;" x="258.394475" xlink:href="#me68e23d87e" y="198.121435"/>
     <use style="fill:#d62728;stroke:#d62728;" x="265.480155" xlink:href="#me68e23d87e" y="199.212"/>
     <use style="fill:#d62728;stroke:#d62728;" x="272.565835" xlink:href="#me68e23d87e" y="198.7008"/>
     <use style="fill:#d62728;stroke:#d62728;" x="279.651515" xlink:href="#me68e23d87e" y="199.567185"/>
     <use style="fill:#d62728;stroke:#d62728;" x="286.737196" xlink:href="#me68e23d87e" y="199.964025"/>
    </g>
   </g>
   <g id="line2d_31">
    <defs>
     <path d="M -0 3 
L 3 -3 
L -3 -3 
z
" id="mf5d195b919" style="stroke:#d62728;stroke-linejoin:miter;"/>
    </defs>
    <g clip-path="url(#p2cc9e6b19c)">
     <use style="fill:#d62728;stroke:#d62728;stroke-linejoin:miter;" x="67.081108" xlink:href="#mf5d195b919" y="74.824135"/>
     <use style="fill:#d62728;stroke:#d62728;stroke-linejoin:miter;" x="74.166789" xlink:href="#mf5d195b919" y="77.533959"/>
     <use style="fill:#d62728;stroke:#d62728;stroke-linejoin:miter;" x="81.252469" xlink:href="#mf5d195b919" y="81.166722"/>
     <use style="fill:#d62728;stroke:#d62728;stroke-linejoin:miter;" x="88.338149" xlink:href="#mf5d195b919" y="83.725405"/>
     <use style="fill:#d62728;stroke:#d62728;stroke-linejoin:miter;" x="95.423829" xlink:href="#mf5d195b919" y="88.2073"/>
     <use style="fill:#d62728;stroke:#d62728;stroke-linejoin:miter;" x="102.509509" xlink:href="#mf5d195b919" y="96.578239"/>
     <use style="fill:#d62728;stroke:#d62728;stroke-linejoin:miter;" x="109.59519" xlink:href="#mf5d195b919" y="100.140825"/>
     <use style="fill:#d62728;stroke:#d62728;stroke-linejoin:miter;" x="116.68087" xlink:href="#mf5d195b919" y="102.311146"/>
     <use style="fill:#d62728;stroke:#d62728;stroke-linejoin:miter;" x="123.76655" xlink:href="#mf5d195b919" y="106.960423"/>
     <use style="fill:#d62728;stroke:#d62728;stroke-linejoin:miter;" x="130.85223" xlink:href="#mf5d195b919" y="119.743148"/>
     <use style="fill:#d62728;stroke:#d62728;stroke-linejoin:miter;" x="137.937911" xlink:href="#mf5d195b919" y="134.818704"/>
     <use style="fill:#d62728;stroke:#d62728;stroke-linejoin:miter;" x="145.023591" xlink:href="#mf5d195b919" y="132.948903"/>
     <use style="fill:#d62728;stroke:#d62728;stroke-linejoin:miter;" x="152.109271" xlink:href="#mf5d195b919" y="171.280139"/>
     <use style="fill:#d62728;stroke:#d62728;stroke-linejoin:miter;" x="159.194951" xlink:href="#mf5d195b919" y="181.309897"/>
     <use style="fill:#d62728;stroke:#d62728;stroke-linejoin:miter;" x="166.280632" xlink:href="#mf5d195b919" y="185.225456"/>
     <use style="fill:#d62728;stroke:#d62728;stroke-linejoin:miter;" x="173.366312" xlink:href="#mf5d195b919" y="189.979707"/>
     <use style="fill:#d62728;stroke:#d62728;stroke-linejoin:miter;" x="180.451992" xlink:href="#mf5d195b919" y="190.864466"/>
     <use style="fill:#d62728;stroke:#d62728;stroke-linejoin:miter;" x="187.537672" xlink:href="#mf5d195b919" y="193.491491"/>
     <use style="fill:#d62728;stroke:#d62728;stroke-linejoin:miter;" x="194.623353" xlink:href="#mf5d195b919" y="194.843047"/>
     <use style="fill:#d62728;stroke:#d62728;stroke-linejoin:miter;" x="201.709033" xlink:href="#mf5d195b919" y="195.468013"/>
     <use style="fill:#d62728;stroke:#d62728;stroke-linejoin:miter;" x="208.794713" xlink:href="#mf5d195b919" y="198.957615"/>
     <use style="fill:#d62728;stroke:#d62728;stroke-linejoin:miter;" x="215.880393" xlink:href="#mf5d195b919" y="196.691806"/>
     <use style="fill:#d62728;stroke:#d62728;stroke-linejoin:miter;" x="222.966073" xlink:href="#mf5d195b919" y="196.096228"/>
     <use style="fill:#d62728;stroke:#d62728;stroke-linejoin:miter;" x="230.051754" xlink:href="#mf5d195b919" y="197.584254"/>
     <use style="fill:#d62728;stroke:#d62728;stroke-linejoin:miter;" x="237.137434" xlink:href="#mf5d195b919" y="199.292798"/>
     <use style="fill:#d62728;stroke:#d62728;stroke-linejoin:miter;" x="244.223114" xlink:href="#mf5d195b919" y="198.906784"/>
     <use style="fill:#d62728;stroke:#d62728;stroke-linejoin:miter;" x="251.308794" xlink:href="#mf5d195b919" y="199.963609"/>
     <use style="fill:#d62728;stroke:#d62728;stroke-linejoin:miter;" x="258.394475" xlink:href="#mf5d195b919" y="199.258968"/>
     <use style="fill:#d62728;stroke:#d62728;stroke-linejoin:miter;" x="265.480155" xlink:href="#mf5d195b919" y="200.538782"/>
     <use style="fill:#d62728;stroke:#d62728;stroke-linejoin:miter;" x="272.565835" xlink:href="#mf5d195b919" y="199.82719"/>
     <use style="fill:#d62728;stroke:#d62728;stroke-linejoin:miter;" x="279.651515" xlink:href="#mf5d195b919" y="200.273351"/>
     <use style="fill:#d62728;stroke:#d62728;stroke-linejoin:miter;" x="286.737196" xlink:href="#mf5d195b919" y="200.259134"/>
    </g>
   </g>
   <g id="patch_3">
    <path d="M 56.098304 217.24 
L 56.098304 13.32 
" style="fill:none;stroke:#000000;stroke-linecap:square;stroke-linejoin:miter;stroke-width:0.8;"/>
   </g>
   <g id="patch_4">
    <path d="M 297.72 217.24 
L 297.72 13.32 
" style="fill:none;stroke:#000000;stroke-linecap:square;stroke-linejoin:miter;stroke-width:0.8;"/>
   </g>
   <g id="patch_5">
    <path d="M 56.098304 217.24 
L 297.72 217.24 
" style="fill:none;stroke:#000000;stroke-linecap:square;stroke-linejoin:miter;stroke-width:0.8;"/>
   </g>
   <g id="patch_6">
    <path d="M 56.098304 13.32 
L 297.72 13.32 
" style="fill:none;stroke:#000000;stroke-linecap:square;stroke-linejoin:miter;stroke-width:0.8;"/>
   </g>
   <g id="legend_1">
    <g id="patch_7">
     <path d="M 191.859063 35.998125 
L 290.72 35.998125 
Q 292.72 35.998125 292.72 33.998125 
L 292.72 20.32 
Q 292.72 18.32 290.72 18.32 
L 191.859063 18.32 
Q 189.859063 18.32 189.859063 20.32 
L 189.859063 33.998125 
Q 189.859063 35.998125 191.859063 35.998125 
z
" style="fill:#ffffff;opacity:0.8;stroke:#cccccc;stroke-linejoin:miter;"/>
    </g>
    <g id="LineCollection_2">
     <path d="M 203.859063 31.418438 
L 203.859063 21.418438 
" style="fill:none;stroke:#d62728;stroke-width:1.5;"/>
    </g>
    <g id="line2d_32">
     <g>
      <use style="fill:#d62728;stroke:#d62728;" x="203.859063" xlink:href="#me68e23d87e" y="31.418438"/>
     </g>
    </g>
    <g id="line2d_33">
     <g>
      <use style="fill:#d62728;stroke:#d62728;" x="203.859063" xlink:href="#me68e23d87e" y="21.418438"/>
     </g>
    </g>
    <g id="line2d_34"/>
    <g id="line2d_35">
     <g>
      <use style="fill:#d62728;stroke:#d62728;stroke-linejoin:miter;" x="203.859063" xlink:href="#mf5d195b919" y="26.418438"/>
     </g>
    </g>
    <g id="text_13">
     <!-- least squares -->
     <defs>
      <path d="M 14.796875 27.296875 
Q 14.796875 17.390625 18.875 11.75 
Q 22.953125 6.109375 30.078125 6.109375 
Q 37.203125 6.109375 41.296875 11.75 
Q 45.40625 17.390625 45.40625 27.296875 
Q 45.40625 37.203125 41.296875 42.84375 
Q 37.203125 48.484375 30.078125 48.484375 
Q 22.953125 48.484375 18.875 42.84375 
Q 14.796875 37.203125 14.796875 27.296875 
z
M 45.40625 8.203125 
Q 42.578125 3.328125 38.25 0.953125 
Q 33.9375 -1.421875 27.875 -1.421875 
Q 17.96875 -1.421875 11.734375 6.484375 
Q 5.515625 14.40625 5.515625 27.296875 
Q 5.515625 40.1875 11.734375 48.09375 
Q 17.96875 56 27.875 56 
Q 33.9375 56 38.25 53.625 
Q 42.578125 51.265625 45.40625 46.390625 
L 45.40625 54.6875 
L 54.390625 54.6875 
L 54.390625 -20.796875 
L 45.40625 -20.796875 
z
" id="DejaVuSans-71"/>
     </defs>
     <g transform="translate(221.859063 29.918438)scale(0.1 -0.1)">
      <use xlink:href="#DejaVuSans-6c"/>
      <use x="27.783203" xlink:href="#DejaVuSans-65"/>
      <use x="89.306641" xlink:href="#DejaVuSans-61"/>
      <use x="150.585938" xlink:href="#DejaVuSans-73"/>
      <use x="202.685547" xlink:href="#DejaVuSans-74"/>
      <use x="241.894531" xlink:href="#DejaVuSans-20"/>
      <use x="273.681641" xlink:href="#DejaVuSans-73"/>
      <use x="325.78125" xlink:href="#DejaVuSans-71"/>
      <use x="389.257812" xlink:href="#DejaVuSans-75"/>
      <use x="452.636719" xlink:href="#DejaVuSans-61"/>
      <use x="513.916016" xlink:href="#DejaVuSans-72"/>
      <use x="554.998047" xlink:href="#DejaVuSans-65"/>
      <use x="616.521484" xlink:href="#DejaVuSans-73"/>
     </g>
    </g>
   </g>
  </g>
 </g>
 <defs>
  <clipPath id="p2cc9e6b19c">
   <rect height="203.92" width="241.621696" x="56.098304" y="13.32"/>
  </clipPath>
 </defs>
</svg>
